[패키지 소개] 암호화폐 시세와 인덱스를 제공하는 ubci 패키지를 소개합니다
…
[1] "en_US.UTF-8/en_US.UTF-8/en_US.UTF-8/C/en_US.UTF-8/en_US.UTF-8"

함수 예

패키지가 리드미와 설명서를 제공하고 있지만 저도 다시 사용해 보겠습니다.

인덱스 코드 가져오기

ubci_index_options() 함수는 인덱스를 가져오기에 앞서 인덱스의 이름과 설명을 알려줍니다.

library(ubci)
ubci_index_options()

# A tibble: 26 × 4
   index    name                                cate           smry   
   <chr>    <chr>                               <chr>          <chr>  
 1 UBMI     UBMI(Upbit Market Index)            Market Indexes "It is…
 2 UBMI_ST  UBMI BTC quote(Upbit Market Index)  Market Indexes "It is…
 3 UBAI     UBAI(Upbit Altcoin Index)           Market Indexes "It is…
 4 UBAI_ST  UBAI BTC quote(Upbit Altcoin Index) Market Indexes "It is…
 5 UTTI     UBMI 10(Upbit Top 10)               Market Indexes "It is…
 6 UTHI     UBMI 30(Upbit Top 30)               Market Indexes "It is…
 7 THMIDX20 NFT & Collectibles                  Theme Indexes  ""     
 8 THMIDX21 Oracles                             Theme Indexes  ""     
 9 THMIDX22 IoT                                 Theme Indexes  ""     
10 THMIDX23 Smart Contracts                     Theme Indexes  ""     
# … with 16 more rows

자료형은 tbl로 되어 있네요. 주식 분석 패키지의 최강자인 tidyquant와 상성을 고려한 선택이었습니다. ubci_index_options() 함수는 lang 인자로 언어를 변경할 수 있습니다.

ubci_index_options(lang="ko")

# A tibble: 26 × 4
   index    name                                cate        smry      
   <chr>    <chr>                               <chr>       <chr>     
 1 UBMI     UBMI(Upbit Market Index)            시장 인덱스 업비트 거…
 2 UBMI_ST  UBMI BTC quote(Upbit Market Index)  시장 인덱스 UBMI 인덱…
 3 UBAI     UBAI(Upbit Altcoin Index)           시장 인덱스 업비트 거…
 4 UBAI_ST  UBAI BTC quote(Upbit Altcoin Index) 시장 인덱스 UBAI 인덱…
 5 UTTI     UBMI 10(Upbit Top 10)               시장 인덱스 업비트에 …
 6 UTHI     UBMI 30(Upbit Top 30)               시장 인덱스 업비트에 …
 7 THMIDX20 대체불가능 토큰                     테마 인덱스 NFT 자산… 
 8 THMIDX21 오라클                              테마 인덱스 오라클을 …
 9 THMIDX22 아이오티                            테마 인덱스 사물인터… 
10 THMIDX23 스마트컨트랙                        테마 인덱스 스마트컨… 
# … with 16 more rows

인덱스 데이터

ubci_index() 함수는 인덱스의 일별 시가, 고가, 저가, 종가, 거래량을 제공합니다. from,to 인자로 기간을 조절할 수 있습니다.

loi<-ubci_index_options()
loi$index[1]

[1] "UBMI"

ubci_index(loi$index[1])

# A tibble: 1,000 × 6
   index date           open     high      low    close
   <chr> <date>        <dbl>    <dbl>    <dbl>    <dbl>
 1 UBMI  2021-11-10 15228.03 15315.62 14927.00 15063.99
 2 UBMI  2021-11-09 15348.03 15496.54 15098.97 15231.49
 3 UBMI  2021-11-08 14617.60 15368.79 14617.60 15347.32
 4 UBMI  2021-11-07 14315.80 14620.22 14283.40 14604.27
 5 UBMI  2021-11-06 14198.71 14325.03 14091.83 14317.62
 6 UBMI  2021-11-05 14185.00 14333.08 14068.67 14210.53
 7 UBMI  2021-11-04 14249.34 14302.81 14044.97 14181.85
 8 UBMI  2021-11-03 14026.01 14332.37 13768.94 14251.76
 9 UBMI  2021-11-02 13620.61 14102.72 13539.57 14024.94
10 UBMI  2021-11-01 13518.48 13803.18 13220.79 13620.76
# … with 990 more rows
…
ubci_index(loi$index[1], from="2018-05-10", to="2018-05-15")

# A tibble: 0 × 6
# … with 6 variables: index <chr>, date <date>, open <dbl>,
#   high <dbl>, low <dbl>, close <dbl>

암호화폐 코드

ubci_get_options() 함수는 취급하는 암호화폐의 종류를 이름과 코드로 제공합니다.

ubci_get_options()

# A tibble: 804 × 5
   code           name             exchange tradeStatus marketState
   <chr>          <chr>            <chr>    <chr>       <chr>      
 1 UPBIT.KRW-BTC  Bitcoin          UPBIT    ACTIVE      ACTIVE     
 2 UPBIT.KRW-DASH Dash             UPBIT    DELISTED    DELISTED   
 3 UPBIT.KRW-ETH  Ethereum         UPBIT    PREVIEW     ACTIVE     
 4 UPBIT.BTC-NEO  NEO              UPBIT    DELISTED    DELISTED   
 5 UPBIT.BTC-ETH  Ethereum         UPBIT    PREVIEW     ACTIVE     
 6 UPBIT.BTC-LTC  Litecoin         UPBIT    PREVIEW     ACTIVE     
 7 UPBIT.BTC-XRP  Ripple           UPBIT    PREVIEW     ACTIVE     
 8 UPBIT.BTC-ETC  Ethereum Classic UPBIT    PREVIEW     ACTIVE     
 9 UPBIT.BTC-OMG  OmiseGo          UPBIT    PREVIEW     ACTIVE     
10 UPBIT.BTC-CVC  Civic            UPBIT    PREVIEW     ACTIVE     
# … with 794 more rows

ubci_get_options() 함수 역시 한글 옵션을 제공합니다.

ubci_get_options(lang="ko")

# A tibble: 804 × 5
   code           name           exchange tradeStatus marketState
   <chr>          <chr>          <chr>    <chr>       <chr>      
 1 UPBIT.KRW-BTC  비트코인       UPBIT    ACTIVE      ACTIVE     
 2 UPBIT.KRW-DASH 대시           UPBIT    DELISTED    DELISTED   
 3 UPBIT.KRW-ETH  이더리움       UPBIT    PREVIEW     ACTIVE     
 4 UPBIT.BTC-NEO  네오           UPBIT    DELISTED    DELISTED   
 5 UPBIT.BTC-ETH  이더리움       UPBIT    PREVIEW     ACTIVE     
 6 UPBIT.BTC-LTC  라이트코인     UPBIT    PREVIEW     ACTIVE     
 7 UPBIT.BTC-XRP  리플           UPBIT    PREVIEW     ACTIVE     
 8 UPBIT.BTC-ETC  이더리움클래식 UPBIT    PREVIEW     ACTIVE     
 9 UPBIT.BTC-OMG  오미세고       UPBIT    PREVIEW     ACTIVE     
10 UPBIT.BTC-CVC  시빅           UPBIT    PREVIEW     ACTIVE     
# … with 794 more rows

암호화폐 시세 정보

ubci_get() 함수 또한 암호화폐의 일별 시가, 고가, 저가, 종가, 거래량을 제공합니다.

loc<-ubci_get_options()
loc$code[1]

[1] "UPBIT.KRW-BTC"

ubci_get(loc$code[1])

# A tibble: 400 × 7
   code          date           open     high      low    close   volume
   <chr>         <date>        <dbl>    <dbl>    <dbl>    <dbl>    <dbl>
 1 UPBIT.KRW-BTC 2021-11-10 80813000 81439000 79313000 79918000 3195.783
 2 UPBIT.KRW-BTC 2021-11-09 81402000 82700000 79987000 80857000 9216.261
 3 UPBIT.KRW-BTC 2021-11-08 76649000 81586000 76534000 81403000 9132.137
 4 UPBIT.KRW-BTC 2021-11-07 74576000 76700000 74481000 76536000 4447.010
 5 UPBIT.KRW-BTC 2021-11-06 74092000 74649000 73800000 74575000 3742.077
 6 UPBIT.KRW-BTC 2021-11-05 73807000 75000000 73490000 74121000 5520.424
 7 UPBIT.KRW-BTC 2021-11-04 74607000 74880000 73480000 73807000 5757.702
 8 UPBIT.KRW-BTC 2021-11-03 74106000 75141000 72500000 74600000 7931.123
 9 UPBIT.KRW-BTC 2021-11-02 72402000 75590000 72031000 74150000 7684.606
10 UPBIT.KRW-BTC 2021-11-01 72325000 73928000 71003000 72401000 6319.810
# … with 390 more rows
…
