[번역]폴더안의 csv 파일들을 {purrr}와 {readr}을 이용해서 한방에 불러오기
…
ie-general-referrals-by-hospital/general-referrals-by-hospital-department-2015.csv
ie-general-referrals-by-hospital/general-referrals-by-hospital-department-2016.csv
ie-general-referrals-by-hospital/general-referrals-by-hospital-department-2017.csv
ie-general-referrals-by-hospital/general-referrals-by-hospital-department-2018.csv

파일 전체를 불러오기

우선 한 파일을 불러오기

각 csv 파일들을 readr::read_csv() 함수를 이용해서 각각 불러올 수 있습니다. 한 파일만 먼저 예시로 불러와 보겠습니다.

readr::read_csv(csv_files[1])

# A tibble: 837 x 6
   Month_Year Hospital_Name Hospital_ID Hospital_Depart… ReferralType
   <chr>      <chr>               <dbl> <chr>            <chr>       
 1 Aug-15     AMNCH                1049 Paediatric ENT   General Ref…
 2 Aug-15     AMNCH                1049 Paediatric Gast… General Ref…
 3 Aug-15     AMNCH                1049 Paediatric Gene… General Ref…
 4 Aug-15     Bantry Gener…         704 Gastroenterology General Ref…
 5 Aug-15     Bantry Gener…         704 General Medicine General Ref…
 6 Aug-15     Bantry Gener…         704 General Surgery  General Ref…
 7 Aug-15     Bantry Gener…         704 Medicine for th… General Ref…
 8 Aug-15     Bantry Gener…         704 Outreach Dermat… General Ref…
 9 Aug-15     Bantry Gener…         704 Outreach Orthop… General Ref…
10 Aug-15     Bantry Gener…         704 Outreach Surgic… General Ref…
# … with 827 more rows, and 1 more variable: TotalReferrals <dbl>
…
디렉토리의 모든 파일을 읽으려면 purrr::map()을 사용하여 read_csv()를 파일 목록에 매핑(map)합니다. 그러나 각 list() 내의 요소가 tibble(또는 data.frame)이 될 것이고 각 데이터 프레임이 동일한 열을 가짐을 알고 있으니, purrr의 타입 지정 함수인 purrr::map_dfr()를 사용하여 가져온 CSV 파일 각각을 포함하는 단일 data.frame으로 가져와 보겠습니다. *_dfr()가 추가로 달려있는 함수들은 각 요소를 행결합(row-binding)하여 data.frame을 반환하도록 합니다.(이것은 map() %>% bind_rows() 를 호출하는 것과 같습니다.)

csv_files %>% 
  map_dfr(read_csv)

# A tibble: 12,278 x 6
   Month_Year Hospital_Name Hospital_ID Hospital_Depart… ReferralType
   <chr>      <chr>               <dbl> <chr>            <chr>       
 1 Aug-15     AMNCH                1049 Paediatric ENT   General Ref…
 2 Aug-15     AMNCH                1049 Paediatric Gast… General Ref…
 3 Aug-15     AMNCH                1049 Paediatric Gene… General Ref…
 4 Aug-15     Bantry Gener…         704 Gastroenterology General Ref…
 5 Aug-15     Bantry Gener…         704 General Medicine General Ref…
 6 Aug-15     Bantry Gener…         704 General Surgery  General Ref…
 7 Aug-15     Bantry Gener…         704 Medicine for th… General Ref…
 8 Aug-15     Bantry Gener…         704 Outreach Dermat… General Ref…
 9 Aug-15     Bantry Gener…         704 Outreach Orthop… General Ref…
10 Aug-15     Bantry Gener…         704 Outreach Surgic… General Ref…
# … with 12,268 more rows, and 1 more variable: TotalReferrals <dbl>

전체 파일을 불러올 때 추가 설정하기

Month_Year 컬럼이 날짜/시간 자료형이 아니라 글자로 불러와져 있는 것을 알 수 있습니다. read_csv() 함수의 인자를 read_csv()함수에서 사용하는 것 처럼 map_dfr() 안에서 사용할 수 있습니다.(역자 주: read_csv() 함수에서 컬럼의 자료형을 지정하는 형태의 인자를 뜻합니다. 개인적으로는 다음 방법인 불러온 후 수정하는 방식을 선호합니다.)

csv_files %>% 
  map_dfr(read_csv, col_types = cols("Month_Year" = col_date(format = "%b-%y")))

# A tibble: 12,278 x 6
   Month_Year Hospital_Name Hospital_ID Hospital_Depart… ReferralType
   <date>     <chr>               <dbl> <chr>            <chr>       
 1 2015-08-01 AMNCH                1049 Paediatric ENT   General Ref…
 2 2015-08-01 AMNCH                1049 Paediatric Gast… General Ref…
 3 2015-08-01 AMNCH                1049 Paediatric Gene… General Ref…
 4 2015-08-01 Bantry Gener…         704 Gastroenterology General Ref…
 5 2015-08-01 Bantry Gener…         704 General Medicine General Ref…
 6 2015-08-01 Bantry Gener…         704 General Surgery  General Ref…
 7 2015-08-01 Bantry Gener…         704 Medicine for th… General Ref…
 8 2015-08-01 Bantry Gener…         704 Outreach Dermat… General Ref…
 9 2015-08-01 Bantry Gener…         704 Outreach Orthop… General Ref…
10 2015-08-01 Bantry Gener…         704 Outreach Surgic… General Ref…
# … with 12,268 more rows, and 1 more variable: TotalReferrals <dbl>

날짜 자료형 문제를 불러오기 이후에 처리하기

read_csv() 함수의 인자를 설정하면, 대부분의 파일에서 잘 동작합니다. 하지만, 2016년에 Month_Year의 양식이 Jan-15에서 Jan-2016로 바뀌어서 2016년과 2017년 데이터가 NA로 불러와지고 말았습니다.

이것을 고치는 가장 쉬운 방법은, 글자 자료형 그대로 불러온 후에 lubridate 패키지의 날짜 변환 함수를 사용하는 것입니다. readr의 col_date() 함수는 하나의 포멧만 허용하기 때문입니다.

library(lubridate)

csv_files %>% 
  map_dfr(read_csv) %>%
  mutate(Month_Year = myd(Month_Year, truncated = 1))

# A tibble: 12,278 x 6
   Month_Year Hospital_Name Hospital_ID Hospital_Depart… ReferralType
   <date>     <chr>               <dbl> <chr>            <chr>       
 1 2015-08-01 AMNCH                1049 Paediatric ENT   General Ref…
 2 2015-08-01 AMNCH                1049 Paediatric Gast… General Ref…
 3 2015-08-01 AMNCH                1049 Paediatric Gene… General Ref…
 4 2015-08-01 Bantry Gener…         704 Gastroenterology General Ref…
 5 2015-08-01 Bantry Gener…         704 General Medicine General Ref…
 6 2015-08-01 Bantry Gener…         704 General Surgery  General Ref…
 7 2015-08-01 Bantry Gener…         704 Medicine for th… General Ref…
 8 2015-08-01 Bantry Gener…         704 Outreach Dermat… General Ref…
 9 2015-08-01 Bantry Gener…         704 Outreach Orthop… General Ref…
10 2015-08-01 Bantry Gener…         704 Outreach Surgic… General Ref…
# … with 12,268 more rows, and 1 more variable: TotalReferrals <dbl>

파일명 컬럼 추가하기

데이터를 사용하다보면 보고 있는 값이 어느 파일에서 나온 것인지 확인하고 싶을 떄가 있습니다(역자주: 지금의 구조에서는 년도로 구분되어 있기 때문에 날짜 컬럼을 확인하면 됩니다만, .id 인자는 bind_rows() 함수에서도 유용하게 사용하는 것이니 알아두면 좋습니다.). map_dfr() 함수의 .id 인자를 지정하고 싶은 컬럼명(지금은 source)을 작성하는 것으로 사용하면, source 컬럼이 해당 파일이름이 추가되어 최종 데이터셋에 반영됩니다.

csv_files %>% 
  map_dfr(read_csv, .id = "source") %>%
  mutate(Month_Year = myd(Month_Year, truncated = 1))

# A tibble: 12,278 x 7
   source Month_Year Hospital_Name Hospital_ID Hospital_Depart…
   <chr>  <date>     <chr>               <dbl> <chr>           
 1 ie-ge… 2015-08-01 AMNCH                1049 Paediatric ENT  
 2 ie-ge… 2015-08-01 AMNCH                1049 Paediatric Gast…
 3 ie-ge… 2015-08-01 AMNCH                1049 Paediatric Gene…
 4 ie-ge… 2015-08-01 Bantry Gener…         704 Gastroenterology
 5 ie-ge… 2015-08-01 Bantry Gener…         704 General Medicine
 6 ie-ge… 2015-08-01 Bantry Gener…         704 General Surgery 
 7 ie-ge… 2015-08-01 Bantry Gener…         704 Medicine for th…
 8 ie-ge… 2015-08-01 Bantry Gener…         704 Outreach Dermat…
 9 ie-ge… 2015-08-01 Bantry Gener…         704 Outreach Orthop…
10 ie-ge… 2015-08-01 Bantry Gener…         704 Outreach Surgic…
# … with 12,268 more rows, and 2 more variables: ReferralType <chr>,
#   TotalReferrals <dbl>
…
