mrchypark: [패키지 소개] 암호화폐 시세와 인덱스를 제공하는 ubci 패키지를 소개합니다
…
[1] "en_US.UTF-8/en_US.UTF-8/en_US.UTF-8/C/en_US.UTF-8/en_US.UTF-8"

함수 예

패키지가 리드미와 설명서를 제공하고 있지만 저도 다시 사용해 보겠습니다.

인덱스 코드 가져오기

ubci_index_options() 함수는 인덱스를 가져오기에 앞서 인덱스의 이름과 설명을 알려줍니다.

library(ubci)
ubci_index_options()

# A tibble: 22 x 4
   index   name               cate     smry                           
   <chr>   <chr>              <chr>    <chr>                          
 1 UBMI    UBMI(Upbit Market… Market … "It is calculated for all digi…
 2 UBMI_ST UBMI BTC quote(Up… Market … "It is the index that is conve…
 3 UBAI    UBAI(Upbit Altcoi… Market … "It is calculated for all digi…
 4 UBAI_ST UBAI BTC quote(Up… Market … "It is the index that is conve…
 5 UTTI    UBMI 10(Upbit Top… Market … "It is an index that comprises…
 6 UTHI    UBMI 30(Upbit Top… Market … "It is an index that comprises…
 7 THMIDX… DeFi               Theme I… ""                             
 8 THMIDX… Simple Settlement… Theme I… ""                             
 9 THMIDX… Game               Theme I… ""                             
10 THMIDX… Advertisement Ind… Theme I… ""                             
# … with 12 more rows

자료형은 tbl로 되어 있네요. 주식 분석 패키지의 최강자인 tidyquant와 상성을 고려한 선택이었습니다. ubci_index_options() 함수는 lang 인자로 언어를 변경할 수 있습니다.

ubci_index_options(lang="ko")

# A tibble: 22 x 4
   index   name               cate    smry                            
   <chr>   <chr>              <chr>   <chr>                           
 1 UBMI    UBMI(Upbit Market… 시장 인덱스… 업비트 거래소에 상장된 모든 디지털 자산을 대상으로 산출…
 2 UBMI_ST UBMI BTC quote(Up… 시장 인덱스… UBMI 인덱스를 비트코인 기준으로 환산한 인덱스…
 3 UBAI    UBAI(Upbit Altcoi… 시장 인덱스… 업비트 거래소에 상장된 모든 디지털 자산에서 비트코인을 …
 4 UBAI_ST UBAI BTC quote(Up… 시장 인덱스… UBAI 인덱스를 비트코인 기준으로 환산한 인덱스…
 5 UTTI    UBMI 10(Upbit Top… 시장 인덱스… 업비트에 상장된 디지털 자산 중, 시가총액 상위 10개 …
 6 UTHI    UBMI 30(Upbit Top… 시장 인덱스… 업비트에 상장된 디지털 자산 중, 시가총액 상위 30개 …
 7 THMIDX… 디파이             테마 인덱스… 탈중앙화 금융(Decentralized Finance) …
 8 THMIDX… 간편결제 플랫폼    테마 인덱스… 온라인 자산과 암호화폐를 기반으로 한 결제 솔루션을 제공…
 9 THMIDX… 게임시장           테마 인덱스… 게임 산업과 연관되거나, 게임 내/게임 간의 가치 교환에…
10 THMIDX… 광고산업           테마 인덱스… 다양한 형태의 광고와 관련된 서비스를 제공하는 디지털 자…
# … with 12 more rows

인덱스 데이터

ubci_index() 함수는 인덱스의 일별 시가, 고가, 저가, 종가, 거래량을 제공합니다. from,to 인자로 기간을 조절할 수 있습니다.

loi<-ubci_index_options()
loi$index[1]

[1] "UBMI"

ubci_index(loi$index[1])

# A tibble: 1,000 x 6
   index date           open     high       low    close
   <chr> <date>        <dbl>    <dbl>     <dbl>    <dbl>
 1 UBMI  2021-04-26 10162.51 10708.87 10007.99  10666.70
 2 UBMI  2021-04-25 10183.32 10432.49  9633.568 10155.57
 3 UBMI  2021-04-24 10365.54 10507.21  9828.417 10178.89
 4 UBMI  2021-04-23 10188.22 10536.37  8923.213 10363.06
 5 UBMI  2021-04-22 11616.04 11817.18  9996.900 10186.29
 6 UBMI  2021-04-21 11882.51 12113.14 11466.26  11619.31
 7 UBMI  2021-04-20 11981.17 12149.87 10884.92  11896.09
 8 UBMI  2021-04-19 12821.97 13003.96 11842.90  11981.23
 9 UBMI  2021-04-18 13112.00 13204.60 11716.72  12815.97
10 UBMI  2021-04-17 13460.23 13618.78 12998.99  13094.75
# … with 990 more rows
…
ubci_index(loi$index[1], from="2018-05-10", to="2018-05-15")

# A tibble: 0 x 6
# … with 6 variables: index <chr>, date <date>, open <dbl>,
#   high <dbl>, low <dbl>, close <dbl>

암호화폐 코드

ubci_get_options() 함수는 취급하는 암호화폐의 종류를 이름과 코드로 제공합니다.

ubci_get_options()

# A tibble: 793 x 5
   code           name             exchange tradeStatus marketState
   <chr>          <chr>            <chr>    <chr>       <chr>      
 1 UPBIT.KRW-BTC  Bitcoin          UPBIT    ACTIVE      ACTIVE     
 2 UPBIT.KRW-DASH Dash             UPBIT    DELISTED    DELISTED   
 3 UPBIT.KRW-ETH  Ethereum         UPBIT    PREVIEW     ACTIVE     
 4 UPBIT.BTC-NEO  NEO              UPBIT    DELISTED    DELISTED   
 5 UPBIT.BTC-ETH  Ethereum         UPBIT    PREVIEW     ACTIVE     
 6 UPBIT.BTC-LTC  Litecoin         UPBIT    PREVIEW     ACTIVE     
 7 UPBIT.BTC-XRP  Ripple           UPBIT    PREVIEW     ACTIVE     
 8 UPBIT.BTC-ETC  Ethereum Classic UPBIT    PREVIEW     ACTIVE     
 9 UPBIT.BTC-OMG  OmiseGo          UPBIT    PREVIEW     ACTIVE     
10 UPBIT.BTC-CVC  Civic            UPBIT    PREVIEW     ACTIVE     
# … with 783 more rows

ubci_get_options() 함수 역시 한글 옵션을 제공합니다.

ubci_get_options(lang="ko")

# A tibble: 793 x 5
   code           name           exchange tradeStatus marketState
   <chr>          <chr>          <chr>    <chr>       <chr>      
 1 UPBIT.KRW-BTC  비트코인       UPBIT    ACTIVE      ACTIVE     
 2 UPBIT.KRW-DASH 대시           UPBIT    DELISTED    DELISTED   
 3 UPBIT.KRW-ETH  이더리움       UPBIT    PREVIEW     ACTIVE     
 4 UPBIT.BTC-NEO  네오           UPBIT    DELISTED    DELISTED   
 5 UPBIT.BTC-ETH  이더리움       UPBIT    PREVIEW     ACTIVE     
 6 UPBIT.BTC-LTC  라이트코인     UPBIT    PREVIEW     ACTIVE     
 7 UPBIT.BTC-XRP  리플           UPBIT    PREVIEW     ACTIVE     
 8 UPBIT.BTC-ETC  이더리움클래식 UPBIT    PREVIEW     ACTIVE     
 9 UPBIT.BTC-OMG  오미세고       UPBIT    PREVIEW     ACTIVE     
10 UPBIT.BTC-CVC  시빅           UPBIT    PREVIEW     ACTIVE     
# … with 783 more rows

암호화폐 시세 정보

ubci_get() 함수 또한 암호화폐의 일별 시가, 고가, 저가, 종가, 거래량을 제공합니다.

loc<-ubci_get_options()
loc$code[1]

[1] "UPBIT.KRW-BTC"

ubci_get(loc$code[1])

# A tibble: 400 x 7
   code       date           open     high      low    close    volume
   <chr>      <date>        <dbl>    <dbl>    <dbl>    <dbl>     <dbl>
 1 UPBIT.KRW… 2021-04-26 59850000 63088000 59075000 62799000  3637.935
 2 UPBIT.KRW… 2021-04-25 60853000 62050000 57327000 59859000  8791.239
 3 UPBIT.KRW… 2021-04-24 60901000 62519000 58500000 60853000  9176.448
 4 UPBIT.KRW… 2021-04-23 59950000 61900000 54964000 60900000 21936.25 
 5 UPBIT.KRW… 2021-04-22 68193000 69000000 59111000 59962000 20651.79 
 6 UPBIT.KRW… 2021-04-21 70400000 71490000 67601000 68198000  8571.434
 7 UPBIT.KRW… 2021-04-20 71448000 72077000 66001000 70402000 15744.70 
 8 UPBIT.KRW… 2021-04-19 75692000 76829000 70780000 71456000 11873.85 
 9 UPBIT.KRW… 2021-04-18 77909000 78365000 70924000 75643000 16045.53 
10 UPBIT.KRW… 2021-04-17 79322000 79950000 77500000 77905000  6395.587
# … with 390 more rows
…
